0
SECTION
2
HEADER
9
$INSUNITS
70
4
9
$ACADVER
1
AC1014
9
$HANDSEED
5
FFFF
0
ENDSEC
0
SECTION
2
TABLES
0
TABLE
2
VPORT
5
8
100
AcDbSymbolTable
0
ENDTAB
0
TABLE
2
LTYPE
5
5
100
AcDbSymbolTable
0
LTYPE
5
14
100
AcDbSymbolTableRecord
100
AcDbLinetypeTableRecord
2
BYBLOCK
70
0
0
LTYPE
5
15
100
AcDbSymbolTableRecord
100
AcDbLinetypeTableRecord
2
BYLAYER
70
0
0
ENDTAB
0
TABLE
2
LAYER
5
2
100
AcDbSymbolTable
70
2
0
LAYER
5
50
100
AcDbSymbolTableRecord
100
AcDbLayerTableRecord
2
0
70
0
6
CONTINUOUS
0
ENDTAB
0
TABLE
2
STYLE
5
3
100
AcDbSymbolTable
70
1
0
STYLE
5
11
100
AcDbSymbolTableRecord
100
AcDbTextStyleTableRecord
2
STANDARD
70
0
0
ENDTAB
0
TABLE
2
VIEW
5
6
100
AcDbSymbolTable
70
0
0
ENDTAB
0
TABLE
2
UCS
5
7
100
AcDbSymbolTable
70
0
0
ENDTAB
0
TABLE
2
APPID
5
9
100
AcDbSymbolTable
70
2
0
APPID
5
12
100
AcDbSymbolTableRecord
100
AcDbRegAppTableRecord
2
ACAD
70
0
0
ENDTAB
0
TABLE
2
DIMSTYLE
5
A
100
AcDbSymbolTable
70
1
0
ENDTAB
0
TABLE
2
BLOCK_RECORD
5
1
100
AcDbSymbolTable
70
1
0
BLOCK_RECORD
5
1F
100
AcDbSymbolTableRecord
100
AcDbBlockTableRecord
2
*MODEL_SPACE
0
BLOCK_RECORD
5
1B
100
AcDbSymbolTableRecord
100
AcDbBlockTableRecord
2
*PAPER_SPACE
0
ENDTAB
0
ENDSEC
0
SECTION
2
BLOCKS
0
BLOCK
5
20
100
AcDbEntity
100
AcDbBlockBegin
2
*MODEL_SPACE
0
ENDBLK
5
21
100
AcDbEntity
100
AcDbBlockEnd
0
BLOCK
5
1C
100
AcDbEntity
100
AcDbBlockBegin
2
*PAPER_SPACE
0
ENDBLK
5
1D
100
AcDbEntity
100
AcDbBlockEnd
0
ENDSEC
0
SECTION
2
ENTITIES
0
CIRCLE
5
100
100
AcDbEntity
8
0
100
AcDbCircle
10
-150
20
703.5
30
0
40
2.0500000000000007
0
CIRCLE
5
101
100
AcDbEntity
8
0
100
AcDbCircle
10
87.5
20
284.5
30
0
40
2.0500000000000007
0
CIRCLE
5
102
100
AcDbEntity
8
0
100
AcDbCircle
10
0
20
284.5
30
0
40
2.0499999999999998
0
CIRCLE
5
103
100
AcDbEntity
8
0
100
AcDbCircle
10
0
20
703.5
30
0
40
2.0499999999999998
0
CIRCLE
5
104
100
AcDbEntity
8
0
100
AcDbCircle
10
-175
20
284.5
30
0
40
2.0499999999999829
0
CIRCLE
5
105
100
AcDbEntity
8
0
100
AcDbCircle
10
175
20
284.5
30
0
40
2.0499999999999829
0
CIRCLE
5
106
100
AcDbEntity
8
0
100
AcDbCircle
10
-87.5
20
284.5
30
0
40
2.0500000000000007
0
CIRCLE
5
107
100
AcDbEntity
8
0
100
AcDbCircle
10
150
20
703.5
30
0
40
2.0500000000000007
0
LINE
5
108
100
AcDbEntity
8
0
100
AcDbLine
10
-245.00000000000907
20
601.15000000001646
30
0
11
-250.00000000000867
21
601.1500000000126
31
0
0
LINE
5
109
100
AcDbEntity
8
0
100
AcDbLine
10
-250.00000000000867
20
455.55000000001257
30
0
11
-250.00000000000867
21
392.300000000019
31
0
0
LINE
5
110
100
AcDbEntity
8
0
100
AcDbLine
10
-250.00000000000867
20
532.4500000000096
30
0
11
-245.00000000000867
21
532.4500000000096
31
0
0
LINE
5
111
100
AcDbEntity
8
0
100
AcDbLine
10
-245.00000000000867
20
532.4500000000096
30
0
11
-245.00000000000867
21
533.75000000001069
31
0
0
LINE
5
112
100
AcDbEntity
8
0
100
AcDbLine
10
-245.00000000000867
20
533.75000000001069
30
0
11
-240.90000000000873
21
533.7500000000108
31
0
0
LINE
5
113
100
AcDbEntity
8
0
100
AcDbLine
10
-240.90000000000873
20
533.7500000000108
30
0
11
-240.90000000000873
21
532.4500000000096
31
0
0
LINE
5
114
100
AcDbEntity
8
0
100
AcDbLine
10
-240.90000000000873
20
532.4500000000096
30
0
11
-232.90000000000873
21
532.4500000000096
31
0
0
LINE
5
115
100
AcDbEntity
8
0
100
AcDbLine
10
-232.90000000000873
20
532.4500000000096
30
0
11
-232.90000000000873
21
528.35000000000957
31
0
0
LINE
5
116
100
AcDbEntity
8
0
100
AcDbLine
10
-232.90000000000873
20
528.35000000000957
30
0
11
-240.90000000000913
21
528.35000000000957
31
0
0
LINE
5
117
100
AcDbEntity
8
0
100
AcDbLine
10
-240.90000000000913
20
528.35000000000957
30
0
11
-240.90000000000907
21
527.05000000001075
31
0
0
LINE
5
118
100
AcDbEntity
8
0
100
AcDbLine
10
-240.90000000000907
20
527.05000000001075
30
0
11
-245.00000000000898
21
527.05000000001053
31
0
0
LINE
5
119
100
AcDbEntity
8
0
100
AcDbLine
10
-245.00000000000898
20
527.05000000001053
30
0
11
-245.00000000000907
21
528.35000000001639
31
0
0
LINE
5
120
100
AcDbEntity
8
0
100
AcDbLine
10
-245.00000000000907
20
528.35000000001639
30
0
11
-250.00000000000867
21
528.35000000001264
31
0
0
LINE
5
121
100
AcDbEntity
8
0
100
AcDbLine
10
-250.00000000000867
20
459.65000000000964
30
0
11
-245.00000000000867
21
459.65000000000964
31
0
0
LINE
5
122
100
AcDbEntity
8
0
100
AcDbLine
10
-245.00000000000867
20
459.65000000000964
30
0
11
-245.00000000000867
21
460.95000000001073
31
0
0
LINE
5
123
100
AcDbEntity
8
0
100
AcDbLine
10
-245.00000000000867
20
460.95000000001073
30
0
11
-240.90000000000873
21
460.95000000001079
31
0
0
LINE
5
124
100
AcDbEntity
8
0
100
AcDbLine
10
-240.90000000000873
20
460.95000000001079
30
0
11
-240.90000000000873
21
459.65000000000964
31
0
0
LINE
5
125
100
AcDbEntity
8
0
100
AcDbLine
10
-240.90000000000873
20
459.65000000000964
30
0
11
-232.90000000000873
21
459.65000000000964
31
0
0
LINE
5
126
100
AcDbEntity
8
0
100
AcDbLine
10
-232.90000000000873
20
459.65000000000964
30
0
11
-232.90000000000873
21
455.5500000000095
31
0
0
LINE
5
127
100
AcDbEntity
8
0
100
AcDbLine
10
-232.90000000000873
20
455.5500000000095
30
0
11
-240.90000000000913
21
455.5500000000095
31
0
0
LINE
5
128
100
AcDbEntity
8
0
100
AcDbLine
10
-240.90000000000913
20
455.5500000000095
30
0
11
-240.90000000000907
21
454.25000000001069
31
0
0
LINE
5
129
100
AcDbEntity
8
0
100
AcDbLine
10
-240.90000000000907
20
454.25000000001069
30
0
11
-245.00000000000898
21
454.25000000001057
31
0
0
LINE
5
130
100
AcDbEntity
8
0
100
AcDbLine
10
-245.00000000000898
20
454.25000000001057
30
0
11
-245.00000000000907
21
455.55000000001644
31
0
0
LINE
5
131
100
AcDbEntity
8
0
100
AcDbLine
10
-245.00000000000907
20
455.55000000001644
30
0
11
-250.00000000000867
21
455.55000000001257
31
0
0
LINE
5
132
100
AcDbEntity
8
0
100
AcDbLine
10
-250.00000000000867
20
282.00000000000949
30
0
11
250.00000000000867
21
282.00000000000955
31
0
0
LINE
5
133
100
AcDbEntity
8
0
100
AcDbLine
10
250.00000000000867
20
382.75000000001256
30
0
11
245.00000000000907
21
382.75000000001637
31
0
0
LINE
5
134
100
AcDbEntity
8
0
100
AcDbLine
10
245.00000000000907
20
382.75000000001637
30
0
11
245.00000000000898
21
381.45000000001056
31
0
0
LINE
5
135
100
AcDbEntity
8
0
100
AcDbLine
10
245.00000000000898
20
381.45000000001056
30
0
11
240.90000000000907
21
381.45000000001068
31
0
0
LINE
5
136
100
AcDbEntity
8
0
100
AcDbLine
10
240.90000000000907
20
381.45000000001068
30
0
11
240.90000000000913
21
382.75000000000949
31
0
0
LINE
5
137
100
AcDbEntity
8
0
100
AcDbLine
10
240.90000000000913
20
382.75000000000949
30
0
11
232.90000000000873
21
382.75000000000949
31
0
0
LINE
5
138
100
AcDbEntity
8
0
100
AcDbLine
10
232.90000000000873
20
382.75000000000949
30
0
11
232.90000000000873
21
386.85000000000963
31
0
0
LINE
5
139
100
AcDbEntity
8
0
100
AcDbLine
10
232.90000000000873
20
386.85000000000963
30
0
11
240.90000000000873
21
386.85000000000963
31
0
0
LINE
5
140
100
AcDbEntity
8
0
100
AcDbLine
10
240.90000000000873
20
386.85000000000963
30
0
11
240.90000000000873
21
388.15000000001078
31
0
0
LINE
5
141
100
AcDbEntity
8
0
100
AcDbLine
10
240.90000000000873
20
388.15000000001078
30
0
11
245.00000000000867
21
388.15000000001072
31
0
0
LINE
5
142
100
AcDbEntity
8
0
100
AcDbLine
10
245.00000000000867
20
388.15000000001072
30
0
11
245.00000000000867
21
386.85000000000963
31
0
0
LINE
5
143
100
AcDbEntity
8
0
100
AcDbLine
10
245.00000000000867
20
386.85000000000963
30
0
11
250.00000000000867
21
386.85000000000963
31
0
0
LINE
5
144
100
AcDbEntity
8
0
100
AcDbLine
10
250.00000000000867
20
455.55000000001257
30
0
11
245.00000000000907
21
455.55000000001644
31
0
0
LINE
5
145
100
AcDbEntity
8
0
100
AcDbLine
10
245.00000000000907
20
455.55000000001644
30
0
11
245.00000000000898
21
454.25000000001057
31
0
0
LINE
5
146
100
AcDbEntity
8
0
100
AcDbLine
10
245.00000000000898
20
454.25000000001057
30
0
11
240.90000000000907
21
454.25000000001069
31
0
0
LINE
5
147
100
AcDbEntity
8
0
100
AcDbLine
10
240.90000000000907
20
454.25000000001069
30
0
11
240.90000000000913
21
455.5500000000095
31
0
0
LINE
5
148
100
AcDbEntity
8
0
100
AcDbLine
10
240.90000000000913
20
455.5500000000095
30
0
11
232.90000000000873
21
455.5500000000095
31
0
0
LINE
5
149
100
AcDbEntity
8
0
100
AcDbLine
10
232.90000000000873
20
455.5500000000095
30
0
11
232.90000000000873
21
459.65000000000964
31
0
0
LINE
5
150
100
AcDbEntity
8
0
100
AcDbLine
10
232.90000000000873
20
459.65000000000964
30
0
11
240.90000000000873
21
459.65000000000964
31
0
0
LINE
5
151
100
AcDbEntity
8
0
100
AcDbLine
10
240.90000000000873
20
459.65000000000964
30
0
11
240.90000000000873
21
460.95000000001079
31
0
0
LINE
5
152
100
AcDbEntity
8
0
100
AcDbLine
10
240.90000000000873
20
460.95000000001079
30
0
11
245.00000000000867
21
460.95000000001073
31
0
0
LINE
5
153
100
AcDbEntity
8
0
100
AcDbLine
10
245.00000000000867
20
460.95000000001073
30
0
11
245.00000000000867
21
459.65000000000964
31
0
0
LINE
5
154
100
AcDbEntity
8
0
100
AcDbLine
10
245.00000000000867
20
459.65000000000964
30
0
11
250.00000000000867
21
459.65000000000964
31
0
0
LINE
5
155
100
AcDbEntity
8
0
100
AcDbLine
10
250.00000000000867
20
528.35000000001264
30
0
11
245.00000000000907
21
528.35000000001639
31
0
0
LINE
5
156
100
AcDbEntity
8
0
100
AcDbLine
10
245.00000000000907
20
528.35000000001639
30
0
11
245.00000000000898
21
527.05000000001053
31
0
0
LINE
5
157
100
AcDbEntity
8
0
100
AcDbLine
10
245.00000000000898
20
527.05000000001053
30
0
11
240.90000000000907
21
527.05000000001075
31
0
0
LINE
5
158
100
AcDbEntity
8
0
100
AcDbLine
10
240.90000000000907
20
527.05000000001075
30
0
11
240.90000000000913
21
528.35000000000957
31
0
0
LINE
5
159
100
AcDbEntity
8
0
100
AcDbLine
10
240.90000000000913
20
528.35000000000957
30
0
11
232.90000000000873
21
528.35000000000957
31
0
0
LINE
5
160
100
AcDbEntity
8
0
100
AcDbLine
10
232.90000000000873
20
528.35000000000957
30
0
11
232.90000000000873
21
532.4500000000096
31
0
0
LINE
5
161
100
AcDbEntity
8
0
100
AcDbLine
10
232.90000000000873
20
532.4500000000096
30
0
11
240.90000000000873
21
532.4500000000096
31
0
0
LINE
5
162
100
AcDbEntity
8
0
100
AcDbLine
10
240.90000000000873
20
532.4500000000096
30
0
11
240.90000000000873
21
533.7500000000108
31
0
0
LINE
5
163
100
AcDbEntity
8
0
100
AcDbLine
10
240.90000000000873
20
533.7500000000108
30
0
11
245.00000000000867
21
533.75000000001069
31
0
0
LINE
5
164
100
AcDbEntity
8
0
100
AcDbLine
10
245.00000000000867
20
533.75000000001069
30
0
11
245.00000000000867
21
532.4500000000096
31
0
0
LINE
5
165
100
AcDbEntity
8
0
100
AcDbLine
10
245.00000000000867
20
532.4500000000096
30
0
11
250.00000000000867
21
532.4500000000096
31
0
0
LINE
5
166
100
AcDbEntity
8
0
100
AcDbLine
10
250.00000000000867
20
601.1500000000126
30
0
11
245.00000000000907
21
601.15000000001646
31
0
0
LINE
5
167
100
AcDbEntity
8
0
100
AcDbLine
10
245.00000000000907
20
601.15000000001646
30
0
11
245.00000000000898
21
599.8500000000106
31
0
0
LINE
5
168
100
AcDbEntity
8
0
100
AcDbLine
10
245.00000000000898
20
599.8500000000106
30
0
11
240.90000000000907
21
599.85000000001071
31
0
0
LINE
5
169
100
AcDbEntity
8
0
100
AcDbLine
10
240.90000000000907
20
599.85000000001071
30
0
11
240.90000000000913
21
601.15000000000953
31
0
0
LINE
5
170
100
AcDbEntity
8
0
100
AcDbLine
10
240.90000000000913
20
601.15000000000953
30
0
11
232.90000000000873
21
601.15000000000953
31
0
0
LINE
5
171
100
AcDbEntity
8
0
100
AcDbLine
10
232.90000000000873
20
601.15000000000953
30
0
11
232.90000000000873
21
605.25000000000966
31
0
0
LINE
5
172
100
AcDbEntity
8
0
100
AcDbLine
10
232.90000000000873
20
605.25000000000966
30
0
11
240.90000000000873
21
605.25000000000966
31
0
0
LINE
5
173
100
AcDbEntity
8
0
100
AcDbLine
10
240.90000000000873
20
605.25000000000966
30
0
11
240.90000000000873
21
606.55000000001087
31
0
0
LINE
5
174
100
AcDbEntity
8
0
100
AcDbLine
10
240.90000000000873
20
606.55000000001087
30
0
11
245.00000000000867
21
606.55000000001075
31
0
0
LINE
5
175
100
AcDbEntity
8
0
100
AcDbLine
10
245.00000000000867
20
606.55000000001075
30
0
11
245.00000000000867
21
605.25000000000966
31
0
0
LINE
5
176
100
AcDbEntity
8
0
100
AcDbLine
10
245.00000000000867
20
605.25000000000966
30
0
11
250.00000000000867
21
605.25000000000966
31
0
0
LINE
5
177
100
AcDbEntity
8
0
100
AcDbLine
10
250.00000000000864
20
706.00000000000011
30
0
11
-250.00000000000864
21
706.00000000000011
31
0
0
LINE
5
178
100
AcDbEntity
8
0
100
AcDbLine
10
-250.00000000000867
20
605.25000000000966
30
0
11
-245.00000000000867
21
605.25000000000966
31
0
0
LINE
5
179
100
AcDbEntity
8
0
100
AcDbLine
10
-245.00000000000867
20
605.25000000000966
30
0
11
-245.00000000000867
21
606.55000000001075
31
0
0
LINE
5
180
100
AcDbEntity
8
0
100
AcDbLine
10
-245.00000000000867
20
606.55000000001075
30
0
11
-240.90000000000873
21
606.55000000001087
31
0
0
LINE
5
181
100
AcDbEntity
8
0
100
AcDbLine
10
-240.90000000000873
20
606.55000000001087
30
0
11
-240.90000000000873
21
605.25000000000966
31
0
0
LINE
5
182
100
AcDbEntity
8
0
100
AcDbLine
10
-240.90000000000873
20
605.25000000000966
30
0
11
-232.90000000000873
21
605.25000000000966
31
0
0
LINE
5
183
100
AcDbEntity
8
0
100
AcDbLine
10
-232.90000000000873
20
605.25000000000966
30
0
11
-232.90000000000873
21
601.15000000000953
31
0
0
LINE
5
184
100
AcDbEntity
8
0
100
AcDbLine
10
-232.90000000000873
20
601.15000000000953
30
0
11
-240.90000000000913
21
601.15000000000953
31
0
0
LINE
5
185
100
AcDbEntity
8
0
100
AcDbLine
10
-240.90000000000913
20
601.15000000000953
30
0
11
-240.90000000000907
21
599.85000000001071
31
0
0
LINE
5
186
100
AcDbEntity
8
0
100
AcDbLine
10
-240.90000000000907
20
599.85000000001071
30
0
11
-245.00000000000898
21
599.8500000000106
31
0
0
LINE
5
187
100
AcDbEntity
8
0
100
AcDbLine
10
-245.00000000000898
20
599.8500000000106
30
0
11
-245.00000000000907
21
601.15000000001646
31
0
0
LWPOLYLINE
5
188
100
AcDbEntity
8
0
100
AcDbPolyline
90
4
70
1
43
0.0
10
38.794883651788858
20
357.54826209872874
42
-0.3750046585859681
10
-38.794883651788538
20
357.54826209872846
10
-33.122928899748828
20
363.22021685076822
42
0.36893527404376519
10
33.122928899749134
20
363.22021685076845
0
LWPOLYLINE
5
189
100
AcDbEntity
8
0
100
AcDbPolyline
90
4
70
1
43
0.0
10
-55.785957278644027
20
351.87089697085895
42
-0.38329117339672841
10
-55.785957278634505
20
452.12910302915185
10
-50.12007543604944
20
446.46322118656684
42
0.37963791451650131
10
-50.120075436049646
20
357.53677881345254
0
ARC
5
190
100
AcDbEntity
8
0
100
AcDbCircle
10
-1.7763568394002505e-14
20
402.00000000000011
30
0
40
27.000000000007599
100
AcDbArc
50
53.519624254154984
51
126.48037574584505
0
LINE
5
191
100
AcDbEntity
8
0
100
AcDbLine
10
16.052780463752985
20
423.70963471325496
30
0
11
10.305498411817471
21
417.96235266131941
31
0
0
ARC
5
192
100
AcDbEntity
8
0
100
AcDbCircle
10
-1.7763568394002505e-14
20
402.00000000000011
30
0
40
19.00000000000794
100
AcDbArc
50
57.153197469023304
51
122.84680253097669
0
LINE
5
193
100
AcDbEntity
8
0
100
AcDbLine
10
-10.305498411817508
20
417.96235266131941
30
0
11
-16.052780463753038
21
423.70963471325496
31
0
0
LWPOLYLINE
5
194
100
AcDbEntity
8
0
100
AcDbPolyline
90
4
70
1
43
0.0
10
21.709634713236412
20
418.05278046375582
42
-0.32956068256836812
10
21.709634713245368
20
385.94721953625645
10
15.962352661309849
20
391.694501588192
42
0.29475986675295412
10
15.962352661309884
20
412.30549841182699
0
LWPOLYLINE
5
195
100
AcDbEntity
8
0
100
AcDbPolyline
90
4
70
1
43
0.0
10
-33.102178131196752
20
374.55467611830682
42
-0.36063782345866563
10
-33.102178131187287
20
429.44532388170472
10
-27.415008831034562
20
423.75815458155205
42
0.34860452620369653
10
-27.41500883103474
20
380.24184541846728
0
LWPOLYLINE
5
196
100
AcDbEntity
8
0
100
AcDbPolyline
90
4
70
1
43
0.0
10
-21.709634713254459
20
385.94721953624992
42
-0.32956068256836957
10
-21.709634713245265
20
418.0527804637627
10
-15.962352661309762
20
412.30549841182722
42
0.29475986675295679
10
-15.962352661309918
20
391.69450158819211
0
LWPOLYLINE
5
197
100
AcDbEntity
8
0
100
AcDbPolyline
90
4
70
1
43
0.0
10
-38.79488365178868
20
446.45173790129058
42
-0.37500465858584714
10
38.794883651788645
20
446.45173790129058
10
33.122928899748899
20
440.77978314925082
42
0.36893527404362741
10
-33.122928899748921
20
440.77978314925082
0
LWPOLYLINE
5
198
100
AcDbEntity
8
0
100
AcDbPolyline
90
4
70
1
43
0.0
10
55.785957278625204
20
452.12910302914338
42
-0.38329117339672841
10
55.785957278634555
20
351.87089697086725
10
50.120075436049504
20
357.53677881345232
42
0.37963791451650186
10
50.120075436049461
20
446.46322118656678
0
LWPOLYLINE
5
199
100
AcDbEntity
8
0
100
AcDbPolyline
90
4
70
1
43
0.0
10
2.5
20
646.00000000000011
10
2.5
20
656.00000000000011
42
0.99999999999999989
10
-2.5
20
656.00000000000011
10
-2.5
20
646.00000000000011
42
0.99999999999999989
0
LWPOLYLINE
5
200
100
AcDbEntity
8
0
100
AcDbPolyline
90
4
70
1
43
0.0
10
27.445323881695249
20
368.89782186882235
42
-0.36063782345874529
10
-27.445323881694932
20
368.89782186882206
10
-21.75815458154225
20
374.5849911689748
42
0.34860452620379084
10
21.758154581542492
20
374.58499116897508
0
LWPOLYLINE
5
201
100
AcDbEntity
8
0
100
AcDbPolyline
90
4
70
1
43
0.0
10
50.129103029142513
20
346.21404272137517
42
-0.38329117339677699
10
-50.129103029142065
20
346.21404272137477
10
-44.463221186557071
20
351.87992456395989
42
0.37963791451655554
10
44.463221186557391
20
351.87992456396023
0
LWPOLYLINE
5
202
100
AcDbEntity
8
0
100
AcDbPolyline
90
4
70
1
43
0.0
10
-44.451737901290436
20
363.20511634821287
42
-0.37500465858590726
10
-44.451737901280914
20
440.79488365179827
10
-38.779783149241162
20
435.12292889975862
42
0.36893527404369647
10
-38.779783149241347
20
368.87707110026071
0
LWPOLYLINE
5
203
100
AcDbEntity
8
0
100
AcDbPolyline
90
4
70
1
43
0.0
10
44.451737901271656
20
440.79488365179003
42
-0.37500465858590754
10
44.451737901280964
20
363.20511634822083
10
38.779783149241247
20
368.87707110026054
42
0.36893527404369614
10
38.779783149241275
20
435.12292889975845
0
LWPOLYLINE
5
204
100
AcDbEntity
8
0
100
AcDbPolyline
90
4
70
1
43
0.0
10
33.102178131178114
20
429.44532388169682
42
-0.36063782345866469
10
33.102178131187401
20
374.55467611831455
10
27.415008831034633
20
380.24184541846722
42
0.34860452620369564
10
27.415008831034694
20
423.75815458155188
0
LWPOLYLINE
5
205
100
AcDbEntity
8
0
100
AcDbPolyline
90
4
70
1
43
0.0
10
-27.445323881695046
20
435.10217813119698
42
-0.36063782345858558
10
27.445323881695032
20
435.10217813119698
10
21.758154581542296
20
429.41500883104425
42
0.34860452620360105
10
-21.758154581542321
20
429.41500883104425
0
LWPOLYLINE
5
206
100
AcDbEntity
8
0
100
AcDbPolyline
90
4
70
1
43
0.0
10
-50.129103029142243
20
457.7859572786441
42
-0.38329117339667995
10
50.129103029142215
20
457.7859572786441
10
44.463221186557163
20
452.1200754360591
42
0.37963791451644785
10
-44.463221186557156
20
452.1200754360591
0
LWPOLYLINE
5
207
100
AcDbEntity
8
0
100
AcDbPolyline
90
4
70
1
43
0.0
10
16.052780463753187
20
380.29036528676437
42
-0.32956068256848503
10
-16.052780463752939
20
380.29036528676414
10
-10.305498411817425
20
386.03764733869968
42
0.29475986675310317
10
10.30549841181768
20
386.0376473386998
0
LWPOLYLINE
5
208
100
AcDbEntity
8
0
100
AcDbPolyline
90
4
70
1
43
0.0
10
2.5
20
606.00000000000011
10
2.5
20
616.00000000000011
42
0.99999999999999989
10
-2.5
20
616.00000000000011
10
-2.5
20
606.00000000000011
42
0.99999999999999989
0
CIRCLE
5
209
100
AcDbEntity
8
0
100
AcDbCircle
10
-78.499999999999915
20
323.50000000000955
30
0
40
2.7500000000000036
0
CIRCLE
5
210
100
AcDbEntity
8
0
100
AcDbCircle
10
78.500000000000099
20
480.50000000000955
30
0
40
2.7500000000000036
0
CIRCLE
5
211
100
AcDbEntity
8
0
100
AcDbCircle
10
-78.499999999999915
20
480.50000000000955
30
0
40
2.7500000000000036
0
CIRCLE
5
212
100
AcDbEntity
8
0
100
AcDbCircle
10
78.500000000000099
20
323.50000000000955
30
0
40
2.7500000000000036
0
CIRCLE
5
213
100
AcDbEntity
8
0
100
AcDbCircle
10
217.90000000000873
20
332.00000000000955
30
0
40
1.3749999999999929
0
CIRCLE
5
214
100
AcDbEntity
8
0
100
AcDbCircle
10
168.90000000000873
20
332.00000000000955
30
0
40
1.3749999999999929
0
CIRCLE
5
215
100
AcDbEntity
8
0
100
AcDbCircle
10
217.90000000000873
20
390.00000000000955
30
0
40
1.3749999999999929
0
CIRCLE
5
216
100
AcDbEntity
8
0
100
AcDbCircle
10
168.90000000000873
20
390.00000000000955
30
0
40
1.3749999999999929
0
CIRCLE
5
217
100
AcDbEntity
8
0
100
AcDbCircle
10
-1.7763568394002505e-14
20
402.00000000000011
30
0
40
10.999999999999996
0
LINE
5
218
100
AcDbEntity
8
0
100
AcDbLine
10
250.00000000000867
20
282.00000000000955
30
0
11
250.00000000000867
21
304.50000000000034
31
0
0
LINE
5
219
100
AcDbEntity
8
0
100
AcDbLine
10
250.00000379979608
20
304.50000000000034
30
0
11
255.00000379979608
21
304.50000000000034
31
0
0
LINE
5
220
100
AcDbEntity
8
0
100
AcDbLine
10
255.00000379979608
20
304.50000000000034
30
0
11
255.00000379979608
21
319.50000000000034
31
0
0
LINE
5
221
100
AcDbEntity
8
0
100
AcDbLine
10
255.00000379979608
20
319.50000000000034
30
0
11
250.00000000000864
21
319.50000000000034
31
0
0
LINE
5
222
100
AcDbEntity
8
0
100
AcDbLine
10
250.00000000000864
20
319.50000000000034
30
0
11
250.00000000000867
21
382.75000000001256
31
0
0
LINE
5
223
100
AcDbEntity
8
0
100
AcDbLine
10
250.00000000000867
20
386.85000000000963
30
0
11
250.00000000000867
21
455.55000000001257
31
0
0
LINE
5
224
100
AcDbEntity
8
0
100
AcDbLine
10
250.00000000000867
20
459.65000000000964
30
0
11
250.00000000000867
21
528.35000000001264
31
0
0
LINE
5
225
100
AcDbEntity
8
0
100
AcDbLine
10
250.00000000000867
20
532.4500000000096
30
0
11
250.00000000000867
21
601.1500000000126
31
0
0
LINE
5
226
100
AcDbEntity
8
0
100
AcDbLine
10
250.00000000000867
20
605.25000000000966
30
0
11
250.00000000000864
21
668.50000000000932
31
0
0
LINE
5
227
100
AcDbEntity
8
0
100
AcDbLine
10
250.00000000000864
20
668.50000000000932
30
0
11
255.00000379979608
21
668.50000000000932
31
0
0
LINE
5
228
100
AcDbEntity
8
0
100
AcDbLine
10
255.00000379979608
20
668.50000000000932
30
0
11
255.00000379979608
21
683.50000000000932
31
0
0
LINE
5
229
100
AcDbEntity
8
0
100
AcDbLine
10
255.00000379979608
20
683.50000000000932
30
0
11
250.00000379979608
21
683.50000000000932
31
0
0
LINE
5
230
100
AcDbEntity
8
0
100
AcDbLine
10
250.00000000000864
20
683.50000000000932
30
0
11
250.00000000000864
21
706.00000000000011
31
0
0
LINE
5
231
100
AcDbEntity
8
0
100
AcDbLine
10
-250.00000000000864
20
706.00000000000011
30
0
11
-250.00000000000864
21
683.50000000000932
31
0
0
LINE
5
232
100
AcDbEntity
8
0
100
AcDbLine
10
-250.00000379979608
20
683.50000000000932
30
0
11
-255.00000379979608
21
683.50000000000932
31
0
0
LINE
5
233
100
AcDbEntity
8
0
100
AcDbLine
10
-255.00000379979608
20
683.50000000000932
30
0
11
-255.00000379979608
21
668.50000000000932
31
0
0
LINE
5
234
100
AcDbEntity
8
0
100
AcDbLine
10
-255.00000379979608
20
668.50000000000932
30
0
11
-250.00000000000864
21
668.50000000000932
31
0
0
LINE
5
235
100
AcDbEntity
8
0
100
AcDbLine
10
-250.00000000000864
20
668.50000000000932
30
0
11
-250.00000000000867
21
605.25000000000966
31
0
0
LINE
5
236
100
AcDbEntity
8
0
100
AcDbLine
10
-250.00000000000867
20
601.1500000000126
30
0
11
-250.00000000000867
21
532.4500000000096
31
0
0
LINE
5
237
100
AcDbEntity
8
0
100
AcDbLine
10
-250.00000000000867
20
528.35000000001264
30
0
11
-250.00000000000867
21
459.65000000000964
31
0
0
LINE
5
238
100
AcDbEntity
8
0
100
AcDbLine
10
-250.00000000000841
20
377.300000000019
30
0
11
-250.00000000000864
21
319.50000000000028
31
0
0
LINE
5
239
100
AcDbEntity
8
0
100
AcDbLine
10
-250.00000000000864
20
319.50000000000028
30
0
11
-255.00000379979608
21
319.50000000000028
31
0
0
LINE
5
240
100
AcDbEntity
8
0
100
AcDbLine
10
-255.00000379979608
20
319.50000000000028
30
0
11
-255.00000379979608
21
304.50000000000028
31
0
0
LINE
5
241
100
AcDbEntity
8
0
100
AcDbLine
10
-255.00000379979608
20
304.50000000000028
30
0
11
-250.00000379979608
21
304.50000000000028
31
0
0
LINE
5
242
100
AcDbEntity
8
0
100
AcDbLine
10
-250.00000379979571
20
392.300000000019
30
0
11
-255.00000379979571
21
392.30000000001905
31
0
0
LINE
5
243
100
AcDbEntity
8
0
100
AcDbLine
10
-255.00000379979571
20
392.30000000001905
30
0
11
-255.00000379979585
21
377.30000000001905
31
0
0
LINE
5
244
100
AcDbEntity
8
0
100
AcDbLine
10
-255.00000379979585
20
377.30000000001905
30
0
11
-250.00000000000841
21
377.300000000019
31
0
0
LINE
5
245
100
AcDbEntity
8
0
100
AcDbLine
10
-250.00000000000867
20
304.50000000000028
30
0
11
-250.00000000000867
21
282.00000000000949
31
0
0
CIRCLE
5
246
100
AcDbEntity
8
0
100
AcDbCircle
10
90.000000000008669
20
596.00000000000011
30
0
40
1.4999999999999858
0
CIRCLE
5
247
100
AcDbEntity
8
0
100
AcDbCircle
10
-170.00000000000867
20
596.00000000000011
30
0
40
1.4999999999999858
0
CIRCLE
5
248
100
AcDbEntity
8
0
100
AcDbCircle
10
-90.000000000008669
20
626.00000000000011
30
0
40
1.4999999999999858
0
CIRCLE
5
249
100
AcDbEntity
8
0
100
AcDbCircle
10
170.00000000000867
20
626.00000000000011
30
0
40
1.4999999999999858
0
CIRCLE
5
250
100
AcDbEntity
8
0
100
AcDbCircle
10
90.000000000008669
20
626.00000000000011
30
0
40
1.4999999999999858
0
CIRCLE
5
251
100
AcDbEntity
8
0
100
AcDbCircle
10
-170.00000000000867
20
626.00000000000011
30
0
40
1.4999999999999858
0
CIRCLE
5
252
100
AcDbEntity
8
0
100
AcDbCircle
10
-90.000000000008669
20
596.00000000000011
30
0
40
1.4999999999999858
0
CIRCLE
5
253
100
AcDbEntity
8
0
100
AcDbCircle
10
170.00000000000867
20
596.00000000000011
30
0
40
1.4999999999999858
0
ENDSEC
0
SECTION
2
OBJECTS
0
DICTIONARY
5
C
100
AcDbDictionary
3
ACAD_GROUP
350
D
3
ACAD_MLINESTYLE
350
17
0
DICTIONARY
5
D
100
AcDbDictionary
0
DICTIONARY
5
1A
330
C
100
AcDbDictionary
0
DICTIONARY
5
17
100
AcDbDictionary
0
ENDSEC
0
EOF
